D:\project\micronaut-hibernate-crud\src\main\java\org\micronaut\demo\repository\impl\UserRepositoryImpl.java
D:\project\micronaut-hibernate-crud\src\main\java\org\micronaut\demo\controller\UserController.java
D:\project\micronaut-hibernate-crud\src\main\java\org\micronaut\demo\entity\User.java
D:\project\micronaut-hibernate-crud\src\main\java\org\micronaut\demo\Application.java
D:\project\micronaut-hibernate-crud\src\main\java\org\micronaut\demo\repository\UserRepository.java
